%YAML 1.1
%TAG !u! tag:unity3d.com,2011:
--- !u!78 &1
TagManager:
  serializedVersion: 2
  tags:
  - Object
  - Object2
  - Object3
  - SnareDrum
  - Lion
  - CircusBall
  - CircusBall2
  - ' Elephant'
  - Player2
  layers:
  - Default
  - TransparentFX
  - Ignore Raycast
  - 
  - Water
  - UI
  - 
  - 
  - 
  - 
  - 
  - 
  - 
  - 
  - 
  - 
  - 
  - 
  - 
  - 
  - 
  - 
  - 
  - 
  - 
  - 
  - 
  - 
  - 
  - 
  - 
  - 
  m_SortingLayers:
  - name: Default
    uniqueID: 0
    locked: 0
  - name: background
    uniqueID: 42721875
    locked: 0
  - name: clown
    uniqueID: 4171931685
    locked: 0
  - name: player
    uniqueID: 330231969
    locked: 0
  - name: object
    uniqueID: 3548249559
    locked: 0
